module github.com/fhir-conn

go 1.12

require (
	github.com/aws/aws-sdk-go v1.23.21
	github.com/gorilla/mux v1.7.3
	github.com/stretchr/testify v1.4.0 // indirect
	golang.org/x/net v0.0.0-20190912160710-24e19bdeb0f2 // indirect
)
